<?xml version="1.0" encoding="UTF-8" standalone="no"?><svg xmlns="http://www.w3.org/2000/svg" xmlns:xlink="http://www.w3.org/1999/xlink" contentStyleType="text/css" height="742px" preserveAspectRatio="none" style="width:479px;height:742px;background:#FFFFFF;" version="1.1" viewBox="0 0 479 742" width="479px" zoomAndPan="magnify"><defs/><g><!--MD5=[07074073229a58b98d86dbf75a12e332]
cluster Internet--><g id="cluster_Internet"><path d="M322.0234,258.8246 C324.9858,253.0723 329.3069,251.8987 333.5476,257.5305 C336.5708,251.3249 342.3541,251.6935 345.1783,257.7196 C348.556,251.0431 353.2215,251.088 357.7789,256.4888 C360.6059,250.1385 365.619,248.3531 370.5166,254.3533 C374.1029,248.517 379.1738,248.377 383.156,253.9133 C386.8758,248.8008 391.9467,248.3085 394.8928,254.7024 C398.5269,249.2733 404.0121,249.386 407.0748,255.3152 C411.0404,251.4033 415.2451,251.9743 417.7082,257.0858 C421.7802,250.175 427.9929,250.1915 431.9371,257.2163 C440.1366,252.1863 448.3702,254.9377 449,265.5 C449.7734,265.2385 450.1417,265.5963 449.96,266.3785 C457.7883,269.768 458.2371,276.085 452.1984,281.5239 C459.1302,284.4272 459.2734,288.8717 454.8172,294.1391 C462.1372,298.5162 462.3286,304.4114 454.706,308.6741 C460.9151,312.6591 460.1445,318.7812 453.7011,321.7973 C460.0595,327.9305 459.6615,333.2542 450.9698,336.613 C457.3138,347.6337 453.2591,353.4189 442,356.5 C442.9288,356.3349 443.7726,356.8867 443.3192,357.9657 C439.5092,364.4105 435.3614,365.235 430.3446,359.2227 C426.9838,364.9104 421.5198,364.7544 418.5216,358.8529 C415.4764,365.7569 409.8779,364.9899 405.7326,360.0399 C402.2316,365.5558 396.9402,365.1402 393.318,360.1836 C391.2307,366.601 385.6082,367.8156 381.722,361.871 C377.186,366.9029 372.5562,365.9572 369.2004,360.4666 C365.6378,365.7792 359.8681,365.363 357.4022,359.3266 C354.2742,365.0006 348.78,364.8795 345.8175,359.1584 C340.7233,364.9153 336.2987,364.1654 332.5425,357.7046 C322.0658,365.4655 314.7173,362.6032 313,349.5 C314.1972,349.1906 315.0198,349.8203 314.8819,351.0905 C306.3377,348.2501 306.3321,341.306 312.4448,336.0851 C306.2566,332.4226 306.1476,327.0809 311.6199,322.6998 C303.879,319.1164 304.5666,314.0485 310.2977,309.1503 C305.028,303.1816 303.4668,298.3074 312.3161,294.2514 C306.6859,289.6244 307.5737,284.0689 313.9867,280.9551 C303.6494,270.1732 308.6388,263.4712 320,258.5 C320.6701,257.7501 321.6248,257.8821 322.0234,258.8246 " style="stroke:#181818;stroke-width:1.0;fill:none;"/><text fill="#000000" font-family="sans-serif" font-size="14" font-weight="bold" lengthAdjust="spacing" textLength="66" x="348" y="276.4951">Internet</text></g><!--MD5=[a12d389d0efdb6df38ed8bef15458071]
entity TRS--><g id="elem_TRS"><rect fill="#ADD8E6" height="62.5938" rx="2.5" ry="2.5" style="stroke:#181818;stroke-width:0.5;" width="119" x="321.5" y="285.5"/><rect fill="#ADD8E6" height="10" style="stroke:#181818;stroke-width:0.5;" width="15" x="420.5" y="290.5"/><rect fill="#ADD8E6" height="2" style="stroke:#181818;stroke-width:0.5;" width="4" x="418.5" y="292.5"/><rect fill="#ADD8E6" height="2" style="stroke:#181818;stroke-width:0.5;" width="4" x="418.5" y="296.5"/><text fill="#000000" font-family="sans-serif" font-size="14" font-style="italic" lengthAdjust="spacing" textLength="47" x="352.5" y="318.4951">«new»</text><text fill="#000000" font-family="sans-serif" font-size="14" lengthAdjust="spacing" textLength="79" x="336.5" y="334.792">TRS Server</text></g><!--MD5=[4a65e84059005d12693a083370a06717]
entity client--><g id="elem_client"><ellipse cx="168" cy="14" fill="#F1F1F1" rx="8" ry="8" style="stroke:#181818;stroke-width:0.5;"/><path d="M168,22 L168,49 M155,30 L181,30 M168,49 L155,64 M168,49 L181,64 " fill="none" style="stroke:#181818;stroke-width:0.5;"/><text fill="#000000" font-family="sans-serif" font-size="14" lengthAdjust="spacing" textLength="39" x="148.5" y="78.4951">client</text></g><!--MD5=[b32eca54928d6a5f36178dba0b7f4e91]
entity WES--><g id="elem_WES"><ellipse cx="168" cy="181" fill="#F1F1F1" rx="8" ry="8" style="stroke:#181818;stroke-width:0.5;"/><text fill="#000000" font-family="sans-serif" font-size="14" lengthAdjust="spacing" textLength="88" x="124" y="210.9951">GA4GH WES</text></g><!--MD5=[0af0a00cd52b1acb97c7fc51acb640b0]
entity WESkit--><g id="elem_WESkit"><rect fill="#F1F1F1" height="46.2969" rx="2.5" ry="2.5" style="stroke:#181818;stroke-width:0.5;" width="130" x="147" y="294"/><rect fill="#F1F1F1" height="10" style="stroke:#181818;stroke-width:0.5;" width="15" x="257" y="299"/><rect fill="#F1F1F1" height="2" style="stroke:#181818;stroke-width:0.5;" width="4" x="255" y="301"/><rect fill="#F1F1F1" height="2" style="stroke:#181818;stroke-width:0.5;" width="4" x="255" y="305"/><text fill="#000000" font-family="sans-serif" font-size="14" lengthAdjust="spacing" textLength="90" x="162" y="326.9951">WESkit REST</text></g><!--MD5=[a1985b34e0f14ee9b41705141e548ce3]
entity Keycloak--><g id="elem_Keycloak"><rect fill="#D3D3D3" height="62.5938" rx="2.5" ry="2.5" style="stroke:#181818;stroke-width:0.5;" width="116" x="357" y="673.5"/><rect fill="#D3D3D3" height="10" style="stroke:#181818;stroke-width:0.5;" width="15" x="453" y="678.5"/><rect fill="#D3D3D3" height="2" style="stroke:#181818;stroke-width:0.5;" width="4" x="451" y="680.5"/><rect fill="#D3D3D3" height="2" style="stroke:#181818;stroke-width:0.5;" width="4" x="451" y="684.5"/><text fill="#000000" font-family="sans-serif" font-size="14" font-style="italic" lengthAdjust="spacing" textLength="76" x="372" y="706.4951">«optional»</text><text fill="#000000" font-family="sans-serif" font-size="14" lengthAdjust="spacing" textLength="64" x="378" y="722.792">Keycloak</text></g><!--MD5=[2de6c6f1e7ba62dac99a38b359449e02]
entity MinIO--><g id="elem_MinIO"><rect fill="#ADD8E6" height="62.5938" rx="2.5" ry="2.5" style="stroke:#181818;stroke-width:0.5;" width="87" x="234.5" y="673.5"/><rect fill="#ADD8E6" height="10" style="stroke:#181818;stroke-width:0.5;" width="15" x="301.5" y="678.5"/><rect fill="#ADD8E6" height="2" style="stroke:#181818;stroke-width:0.5;" width="4" x="299.5" y="680.5"/><rect fill="#ADD8E6" height="2" style="stroke:#181818;stroke-width:0.5;" width="4" x="299.5" y="684.5"/><text fill="#000000" font-family="sans-serif" font-size="14" font-style="italic" lengthAdjust="spacing" textLength="47" x="249.5" y="706.4951">«new»</text><text fill="#000000" font-family="sans-serif" font-size="14" lengthAdjust="spacing" textLength="40" x="253" y="722.792">MinIO</text></g><!--MD5=[ce3173b5a33f0c0cbda863f47c49e4bb]
entity NFS--><g id="elem_NFS"><rect fill="#F1F1F1" height="46.2969" rx="2.5" ry="2.5" style="stroke:#181818;stroke-width:0.5;" width="67" x="132.5" y="682"/><rect fill="#F1F1F1" height="10" style="stroke:#181818;stroke-width:0.5;" width="15" x="179.5" y="687"/><rect fill="#F1F1F1" height="2" style="stroke:#181818;stroke-width:0.5;" width="4" x="177.5" y="689"/><rect fill="#F1F1F1" height="2" style="stroke:#181818;stroke-width:0.5;" width="4" x="177.5" y="693"/><text fill="#000000" font-family="sans-serif" font-size="14" lengthAdjust="spacing" textLength="27" x="147.5" y="714.9951">NFS</text></g><!--MD5=[f96d690baea4a0823d36c98ba0c3a2b4]
entity Redis--><g id="elem_Redis"><rect fill="#F1F1F1" height="46.2969" rx="2.5" ry="2.5" style="stroke:#181818;stroke-width:0.5;" width="79" x="79.5" y="427.5"/><rect fill="#F1F1F1" height="10" style="stroke:#181818;stroke-width:0.5;" width="15" x="138.5" y="432.5"/><rect fill="#F1F1F1" height="2" style="stroke:#181818;stroke-width:0.5;" width="4" x="136.5" y="434.5"/><rect fill="#F1F1F1" height="2" style="stroke:#181818;stroke-width:0.5;" width="4" x="136.5" y="438.5"/><text fill="#000000" font-family="sans-serif" font-size="14" lengthAdjust="spacing" textLength="39" x="94.5" y="460.4951">Redis</text></g><!--MD5=[823f69c0793ff4acbd80a559420afab7]
entity Worker--><g id="elem_Worker"><rect fill="#F1F1F1" height="46.2969" rx="2.5" ry="2.5" style="stroke:#181818;stroke-width:0.5;" width="142" x="17" y="550.5"/><rect fill="#F1F1F1" height="10" style="stroke:#181818;stroke-width:0.5;" width="15" x="139" y="555.5"/><rect fill="#F1F1F1" height="2" style="stroke:#181818;stroke-width:0.5;" width="4" x="137" y="557.5"/><rect fill="#F1F1F1" height="2" style="stroke:#181818;stroke-width:0.5;" width="4" x="137" y="561.5"/><text fill="#000000" font-family="sans-serif" font-size="14" lengthAdjust="spacing" textLength="102" x="32" y="583.4951">Celery Worker</text></g><!--MD5=[ba72416187da2a396e219ea5b5d73a26]
entity MongoDB--><g id="elem_MongoDB"><path d="M212.5,168.5 C212.5,158.5 257,158.5 257,158.5 C257,158.5 301.5,158.5 301.5,168.5 L301.5,193.7969 C301.5,203.7969 257,203.7969 257,203.7969 C257,203.7969 212.5,203.7969 212.5,193.7969 L212.5,168.5 " fill="#F1F1F1" style="stroke:#181818;stroke-width:0.5;"/><path d="M212.5,168.5 C212.5,178.5 257,178.5 257,178.5 C257,178.5 301.5,178.5 301.5,168.5 " fill="none" style="stroke:#181818;stroke-width:0.5;"/><text fill="#000000" font-family="sans-serif" font-size="14" lengthAdjust="spacing" textLength="69" x="222.5" y="195.4951">MongoDB</text></g><!--MD5=[7f95de1b7ec8099dd723ee9297c76e26]
entity Cluster--><g id="elem_Cluster"><rect fill="#F1F1F1" height="46.2969" rx="2.5" ry="2.5" style="stroke:#181818;stroke-width:0.5;" width="90" x="7" y="682"/><rect fill="#F1F1F1" height="10" style="stroke:#181818;stroke-width:0.5;" width="15" x="77" y="687"/><rect fill="#F1F1F1" height="2" style="stroke:#181818;stroke-width:0.5;" width="4" x="75" y="689"/><rect fill="#F1F1F1" height="2" style="stroke:#181818;stroke-width:0.5;" width="4" x="75" y="693"/><text fill="#000000" font-family="sans-serif" font-size="14" lengthAdjust="spacing" textLength="50" x="22" y="714.9951">Cluster</text></g><!--MD5=[88a8698a2e0be56ef48d594f2b2e7e4d]
link WES to WESkit--><g id="link_WES_WESkit"><path d="M170.75,190.38 C177.45,210.78 194.78,263.54 204.71,293.8 " fill="none" id="WES-WESkit" style="stroke:#181818;stroke-width:1.0;"/></g><!--MD5=[6744bf232ed6d5c054de96733d45dfcb]
link MongoDB to WESkit--><g id="link_MongoDB_WESkit"><path d="M249.77,203.53 C241.47,228.24 227.93,268.57 219.51,293.63 " fill="none" id="MongoDB-WESkit" style="stroke:#181818;stroke-width:1.0;"/></g><!--MD5=[b8508581909561e5bbcea3366a0cfaca]
link WESkit to Keycloak--><g id="link_WESkit_Keycloak"><path d="M229.86,340.17 C238.84,351.82 249.57,366.54 258,380.5 C320.11,483.38 377.59,614.46 402.28,673.15 " fill="none" id="WESkit-Keycloak" style="stroke:#181818;stroke-width:1.0;"/></g><!--MD5=[6e4c2b925d26f82dc19f6316f920d1c0]
link WESkit to MinIO--><g id="link_WESkit_MinIO"><path d="M219.14,340.09 C222.78,351.97 227.05,366.93 230,380.5 C253.14,487.03 268.57,615.73 274.84,673.43 " fill="none" id="WESkit-MinIO" style="stroke:#181818;stroke-width:1.0;"/></g><!--MD5=[6b2482c3454a16181f376c9053ce32b1]
link MinIO to Keycloak--><g id="link_MinIO_Keycloak"><path d="M321.62,705 C333.41,705 345.2,705 357,705 " fill="none" id="MinIO-Keycloak" style="stroke:#181818;stroke-width:1.0;"/></g><!--MD5=[a3e17942837afd8dcea7bab0a8ce1b11]
link NFS to MinIO--><g id="link_NFS_MinIO"><path d="M199.69,705 C211.21,705 222.73,705 234.26,705 " fill="none" id="NFS-MinIO" style="stroke:#181818;stroke-width:1.0;"/></g><!--MD5=[bdc95f442f09c6685a34dedf6a41eced]
link client to WES--><g id="link_client_WES"><path d="M148.43,81.45 C142.98,96 139.42,112.93 143,128.5 C146.24,142.61 153.89,157.34 159.88,167.41 " fill="none" id="client-to-WES" style="stroke:#181818;stroke-width:1.0;"/><polygon fill="#181818" points="162.49,171.7,161.2127,161.9343,159.8839,167.4329,154.3853,166.1041,162.49,171.7" style="stroke:#181818;stroke-width:1.0;"/><text fill="#000000" font-family="sans-serif" font-size="13" lengthAdjust="spacing" textLength="8" x="144" y="124.5669">1</text></g><!--MD5=[6f7c5828f8ebaa8ed70dad703601fcbb]
reverse link client to WES--><g id="link_client_WES"><path d="M168,86.71 C168,117.07 168,155.45 168,171.9 " fill="none" id="client-backto-WES" style="stroke:#181818;stroke-width:1.0;"/><polygon fill="#181818" points="168,81.53,164,90.53,168,86.53,172,90.53,168,81.53" style="stroke:#181818;stroke-width:1.0;"/><text fill="#000000" font-family="sans-serif" font-size="13" lengthAdjust="spacing" textLength="16" x="169" y="124.5669">10</text></g><!--MD5=[963e281ff0100b26fcaa44e790227208]
reverse link TRS to WESkit--><g id="link_TRS_WESkit"><path d="M316.31,317 C303.54,317 290.13,317 277.34,317 " fill="none" id="TRS-backto-WESkit" style="stroke:#181818;stroke-width:1.0;"/><polygon fill="#181818" points="321.36,317,312.36,313,316.36,317,312.36,321,321.36,317" style="stroke:#181818;stroke-width:1.0;"/><text fill="#000000" font-family="sans-serif" font-size="13" lengthAdjust="spacing" textLength="8" x="295.25" y="310.0669">2</text></g><!--MD5=[757fe6def85cb77d4f08a1651fcdb888]
link TRS to WESkit--><g id="link_TRS_WESkit"><path d="M321.37,334.11 C315.62,335.28 309.85,336.28 304.25,337 C297.05,337.92 289.58,337.93 282.16,337.3 " fill="none" id="TRS-to-WESkit" style="stroke:#181818;stroke-width:1.0;"/><polygon fill="#181818" points="277.02,336.78,285.5745,341.6606,281.9949,337.2803,286.3751,333.7007,277.02,336.78" style="stroke:#181818;stroke-width:1.0;"/><text fill="#000000" font-family="sans-serif" font-size="13" lengthAdjust="spacing" textLength="8" x="295.25" y="333.0669">3</text></g><!--MD5=[d2a7ad0a8682b43444d66c01aaed70a2]
link WESkit to NFS--><g id="link_WESkit_NFS"><path d="M209.36,340.14 C201.25,408.22 176.73,613.99 168.63,681.95 " fill="none" id="WESkit-NFS" style="stroke:#181818;stroke-width:1.0;"/></g><!--MD5=[e68b9569e6de60d556146d439ee23a55]
link WESkit to Redis--><g id="link_WESkit_Redis"><path d="M165.42,340.27 C149.56,350.28 133.47,363.68 124,380.5 C116.98,392.97 115.41,408.79 115.74,422.13 " fill="none" id="WESkit-to-Redis" style="stroke:#181818;stroke-width:1.0;"/><polygon fill="#181818" points="115.96,427.3,119.571,418.137,115.7459,422.3046,111.5783,418.4795,115.96,427.3" style="stroke:#181818;stroke-width:1.0;"/><text fill="#000000" font-family="sans-serif" font-size="13" lengthAdjust="spacing" textLength="8" x="125" y="393.5669">4</text></g><!--MD5=[33c6dbd33ae27d6e4262af223444b390]
link Redis to WESkit--><g id="link_Redis_WESkit"><path d="M134.62,427.42 C150.86,404.44 176.29,368.49 193.53,344.12 " fill="none" id="Redis-to-WESkit" style="stroke:#181818;stroke-width:1.0;"/><polygon fill="#181818" points="196.43,340.01,187.9706,345.0537,193.5455,344.094,194.5051,349.6689,196.43,340.01" style="stroke:#181818;stroke-width:1.0;"/><text fill="#000000" font-family="sans-serif" font-size="13" lengthAdjust="spacing" textLength="8" x="167" y="393.5669">9</text></g><!--MD5=[e69fd176601edb868ba10fbd9607c7db]
link Redis to Worker--><g id="link_Redis_Worker"><path d="M113.31,473.69 C108.14,493.91 100.48,523.81 94.94,545.42 " fill="none" id="Redis-to-Worker" style="stroke:#181818;stroke-width:1.0;"/><polygon fill="#181818" points="93.65,550.45,99.7617,542.7268,94.8929,545.6069,92.0128,540.7382,93.65,550.45" style="stroke:#181818;stroke-width:1.0;"/><text fill="#000000" font-family="sans-serif" font-size="13" lengthAdjust="spacing" textLength="8" x="107" y="516.5669">5</text></g><!--MD5=[6fd5a786677847e91c885c1434c270c6]
link Worker to Redis--><g id="link_Worker_Redis"><path d="M82.84,550.28 C80.58,536.52 79.38,518.65 84,503.5 C86.76,494.45 91.68,485.56 96.98,477.75 " fill="none" id="Worker-to-Redis" style="stroke:#181818;stroke-width:1.0;"/><polygon fill="#181818" points="99.94,473.53,91.4806,478.5737,97.0555,477.614,98.0151,483.1889,99.94,473.53" style="stroke:#181818;stroke-width:1.0;"/><text fill="#000000" font-family="sans-serif" font-size="13" lengthAdjust="spacing" textLength="8" x="85" y="516.5669">8</text></g><!--MD5=[812011714c2e53f21097041f30e1e623]
link Worker to NFS--><g id="link_Worker_NFS"><path d="M101.41,596.76 C115.7,620.48 138.19,657.82 152.51,681.6 " fill="none" id="Worker-NFS" style="stroke:#181818;stroke-width:1.0;"/></g><!--MD5=[440a95943ea21c058d8abc118903cd90]
link Worker to Cluster--><g id="link_Worker_Cluster"><path d="M81.81,596.76 C75.66,618.91 66.2,652.92 59.59,676.69 " fill="none" id="Worker-to-Cluster" style="stroke:#181818;stroke-width:1.0;"/><polygon fill="#181818" points="58.23,681.6,64.501,674.0056,59.5734,676.7838,56.7952,671.8562,58.23,681.6" style="stroke:#181818;stroke-width:1.0;"/><text fill="#000000" font-family="sans-serif" font-size="13" lengthAdjust="spacing" textLength="8" x="75" y="639.5669">6</text></g><!--MD5=[89de8db744234df0ddc2344f2b21b32d]
link Cluster to Worker--><g id="link_Cluster_Worker"><path d="M48.04,681.74 C46.1,665.94 45.27,644.44 51,626.5 C53.9,617.42 59.03,608.56 64.57,600.81 " fill="none" id="Cluster-to-Worker" style="stroke:#181818;stroke-width:1.0;"/><polygon fill="#181818" points="67.67,596.63,59.1004,601.484,64.6952,600.6488,65.5305,606.2437,67.67,596.63" style="stroke:#181818;stroke-width:1.0;"/><text fill="#000000" font-family="sans-serif" font-size="13" lengthAdjust="spacing" textLength="8" x="52" y="639.5669">7</text></g><!--MD5=[52c67b66ad295ef835da2bc1ea635d25]
link Cluster to NFS--><g id="link_Cluster_NFS"><path d="M97.42,705 C109.03,705 120.64,705 132.25,705 " fill="none" id="Cluster-NFS" style="stroke:#181818;stroke-width:1.0;"/></g><!--MD5=[7b04bb14b08bd336915f8f71354e1e89]
@startuml
skinparam width 1024
skinparam height 400

skinparam component {
    BackgroundColor<<optional>> lightgrey
    BackgroundColor<<new>> lightblue
}


actor client

interface "GA4GH WES" as WES

component "WESkit REST" as WESkit
WES -down- WESkit


component Keycloak <<optional>>
component MinIO <<new>>
component NFS
component Redis
component "Celery Worker" as Worker
database MongoDB

component Cluster

cloud Internet {
    component "TRS Server" as TRS <<new>>
}

WESkit -up- MongoDB
WESkit -down- Keycloak
WESkit -down- MinIO
MinIO -right- Keycloak
MinIO -left- NFS
client -down-> WES: 1
WESkit -left-> TRS: 2
TRS -right-> WESkit: 3
WESkit -right- NFS
WESkit - -> Redis: 4
Redis - -> Worker: 5
Worker -right- NFS
Worker - -> Cluster: 6
Cluster -right- NFS
Cluster - -> Worker: 7
Worker - -> Redis: 8
Redis - -> WESkit: 9
WES -up-> client: 10


@enduml

PlantUML version 1.2022.6(Tue Jun 21 19:34:49 CEST 2022)
(GPL source distribution)
Java Runtime: OpenJDK Runtime Environment
JVM: OpenJDK 64-Bit Server VM
Default Encoding: UTF-8
Language: de
Country: DE
--></g></svg>