@startuml
skinparam width 1024
skinparam height 400

skinparam component {
    BackgroundColor<<optional>> lightgrey
    BackgroundColor<<new>> lightblue
}


actor client

interface "GA4GH WES" as WES

component "WESkit REST" as WESkit
WES -down- WESkit


component Keycloak <<optional>>
component MinIO <<new>>
component NFS
component Redis
component "Celery Worker" as Worker
database MongoDB

component Cluster

cloud Internet {
    component "TRS Server" as TRS <<new>>
}

WESkit -up- MongoDB
WESkit -down- Keycloak
WESkit -down- MinIO
MinIO -right- Keycloak
MinIO -left- NFS
client -down-> WES: 1
WESkit -left-> TRS: 2
TRS -right-> WESkit: 3
WESkit -right- NFS
WESkit --> Redis: 4
Redis --> Worker: 5
Worker -right- NFS
Worker --> Cluster: 6
Cluster -right- NFS
Cluster --> Worker: 7
Worker --> Redis: 8
Redis --> WESkit: 9
WES -up-> client: 10


@enduml